source_KvK_vestigingsnummer;kvk;vestigingsnummer;name;street;houseNumber;houseSuffix;postcode;city;ean_code_elektra;ean_code_gas;dl_zzp;telefoonnummer;bevoegd sourcefunctionaris geslacht;bevoegd functionaris voornaam;bevoegd functionaris tussenvoegsel;bevoegd functionaris tussenvoegsel 2;bevoegd functionaris achternaam;website;aantal medewerkers;aantal bedrijven in concern;gebouw oppervlakte;gebouw bouwjaar 1;sbi-code;sbi-omschrijving;country;Verbruik_E;Verbruik_G;dl_bestaandeklant;agent;assign_to_team;bevoegd functionaris functieomschrijving;afstand tot laadstation (meter);dl_niemandAanwezig;dl_contractgetekend;dl_geenInteresse;dl_NiemandaanwezigII;dl_contractverlenging;dl_kleinVerbruikElektra;dl_kleinVerbruikGas;dl_gemiddeldVerbruikElektra;dl_gemiddeldVerbruikGas;dl_grootVerbruikElektra;dl_grootVerbruikGas
0;01000040;000014491672;C.H. van Duijsen Bouwmaterialenhandel B.V.;Tijnjedijk;87;B;8936AC;LEEUWARDEN;871689740000134707;871689740010124248;0;0582801182;M;D.;J.;;VEENSTRA;www.vanduijsen.nl;1;6;800;1991;6420;Financiële holdings;Netherlands;midden;hoog;0;;;;;0;0;0;0;0;0;0;1;0;0;1
1;01000065;000033060606;Drogisterij Helfrich B.V.;De Kolk;16;;9231CW;SURHUISTERVEEN;871687120052436400;871689295900225777;0;;;;;;;;0;;235;1986;6630;Vermogensbeheer;Netherlands;midden;midden;0;;;;;0;0;0;0;0;0;0;1;1;0;0
2;01000090;000017466822;Banda Beheer B.V.;Heidemeer;21;;8445SC;HEERENVEEN;871687120052906514;871687140007043989;0;0513630630;;;;;;;0;3;147;1996;6420;Financiële holdings;Netherlands;midden;midden;0;;;;;0;0;0;0;0;0;0;1;1;0;0
3;01000100;000014962543;Fa. P. Gerbenzon & Zn.;Weerd;17;;8911HL;LEEUWARDEN;;;1;0582125553;;E.;;;GERBENZON-VAN DER STEEG;;1;;260;1923;47791;Winkels in antiek;Netherlands;midden;midden;0;;;;;0;0;0;0;0;0;0;1;1;0;0
4;01000101;000007978197;Sigarenmagazijn Sipma;Schaapmarktplein;13;;8601CE;SNEEK;871687120050842463;871689740011222158;0;0515412223;;S.;A.;;HETTINGA;;3;;117;1825;4726;Winkels in tabaksproducten;Netherlands;midden;midden;0;;;;;0;0;0;0;0;0;0;1;1;0;0
5;01000103;000011731222;C.J. van der Meer Beheer B.V.;Noordoostersingel;31;;8861HM;HARLINGEN;871687110001197681;871689740030192777;0;0517234713;M;C.;J.;;VAN DER MEER;;0;;150;2008;6420;Financiële holdings;Netherlands;midden;midden;0;;;;;0;0;0;0;0;0;0;1;1;0;0
6;01000116;000008363633;S. Dijkstra Franeker Beheer B.V.;Zevenhuizen;4;A;8801AW;FRANEKER;871687120051585383;871689740010652253;0;0517397030;M;S.;;;DIJKSTRA;;0;0;200;1984;6420;Financiële holdings;Netherlands;midden;midden;0;;;;;0;0;0;0;0;0;0;1;1;0;0
7;01000196;;Flottow B.V.;Frisia;24;;8801PP;FRANEKER;871687120052997758;871689740010635720;0;;;;;;;;1;;187;1999;;;Netherlands;midden;midden;0;;;;;0;0;0;0;0;0;0;1;1;0;0
8;01000215;000012387819;Coöperatie NISCOÖ U.A.;Aldlansdyk;20;;9057LG;JELSUM;871687120050799538;871689740010478921;0;0619959753;M;J.;;;LANGHOUT-BEEMER;;0;;1384;1964;6399;Overige dienstverlenende activiteiten op het gebied van informatie (rest);Netherlands;hoog;hoog;0;;;;;0;0;0;0;0;0;0;0;0;1;1
9;01000222;000016720520;Beheer Miedema B.V.;Oosterlaan;152;;8072CB;NUNSPEET;871687120057820952;871687140005677537;0;;;;;;;;0;6;149;1984;6420;Financiële holdings;Netherlands;midden;midden;0;;;;;0;0;0;0;0;0;0;1;1;0;0
10;01000227;000012467812;Drontmann B.V.;Diaconessenpark;28;;8917GA;LEEUWARDEN;871689740000356505;871689740010330496;0;0582160102;M;A.;G.;;DRONTMANN;;1;;111;1991;6420;Financiële holdings;Netherlands;midden;midden;0;;;;;0;0;0;0;0;0;0;1;1;0;0
11;01000325;000005101603;H.J. van der Werf;Noorderhaven;100;;8861AR;HARLINGEN;871687120050735666;871689740010673746;0;0517415290;M;H.;J.;;VAN DER WERF;hjvanderwerf@hetnet.nl;4;;181;1875;46738;Groothandel gespecialiseerd in overige bouwmaterialen;Netherlands;midden;midden;0;;;;;0;0;0;0;0;0;0;1;1;0;0
12;01000354;000008273294;Het Boekhuis;Noard;17;;8711AA;WORKUM;871687120051686301;871689740011649467;0;0515541314;;V.;G.;J.;STUMPEL;;12;;269;1910;4762;Winkels in kranten, tijdschriften en kantoorbehoeften;Netherlands;hoog;hoog;0;;;;;0;0;0;0;0;0;0;0;0;1;1
13;01000354;000008273529;Het Boekhuis;Appelmarkt;6;;8701KH;BOLSWARD;871687120050835809;871689740011632544;0;0515577717;M;V.;G.;J.;STUMPEL;;7;;341;1890;4762;Winkels in kranten, tijdschriften en kantoorbehoeften;Netherlands;hoog;hoog;0;;;;;0;0;0;0;0;0;0;0;0;1;1
14;01000365;000017888980;Boom distributie centrum;Stationsweg;66;;7941HG;MEPPEL;871694831000069327;871691203000386385;0;0522237555;;;;;;www.boomdistributiecentrum.nl;8;313;2099;1988;6420;Financiële holdings;Netherlands;midden;hoog;0;;;;;0;0;0;0;0;0;0;1;0;0;1
15;01000402;000010753265;P.A. Wiersma Beheer B.V.;Reade Poarte;41;;9084DD;GOUTUM;871689740000452825;871689740010421637;0;0582802404;M;P.;A.;;WIERSMA;;0;;209;1996;6420;Financiële holdings;Netherlands;midden;midden;0;;;;;0;0;0;0;0;0;0;1;1;0;0
16;01000450;000020365195;Orgelmakerij Bakker en Timmenga;Kleine Kerkstraat;25;;8911DL;LEEUWARDEN;871689740000423269;871689740010394344;0;0582129687;;A.;A.;;YEDEMA;;6;6;181;1891;3220;Vervaardiging van muziekinstrumenten;Netherlands;hoog;hoog;0;;;;;0;0;0;0;0;0;0;0;0;1;1
17;01000479;000003616983;Van der Werff Holding B.V.;Reeweg;2;;9166PX;SCHIERMONNIKOOG;871687120053089308;871689295900607191;0;0519531203;F;C.;;;FISCHER;;0;29;2586;1927;6420;Financiële holdings;Netherlands;midden;hoog;0;;;;;0;0;0;0;0;0;0;1;0;0;1
18;01000518;000018561292;Eisma Media Groep B.V.;Celsiusweg;41;;8912AM;LEEUWARDEN;871689740030218255;871689740030218262;0;0882944800;M;E.;;;VAN HES;www.eisma.nl;3;79;1420;2010;6420;Financiële holdings;Netherlands;midden;hoog;0;;;;;0;0;0;0;0;0;0;1;0;0;1
19;01000535;000016494911;JR Participatie I B.V.;Korte Lijnbaan;25;;8861NS;HARLINGEN;871687110000927401;871689740030006173;0;0517431225;;;;;;;0;169;826;2003;64923;Participatiemaatschappijen;Netherlands;midden;hoog;0;;;;;0;0;0;0;0;0;0;1;0;0;1
20;01000638;000013713337;Ambiance Vastgoed B.V.;Slachtedyk;24;A;8501ZA;JOURE;871687120051087283;871689740011745138;0;0513433533;M;T.;H.;B.;DE WOLFF;;0;80;1424;1984;6630;Vermogensbeheer;Netherlands;hoog;hoog;0;;;;;0;0;0;0;0;0;0;0;0;1;1
21;01000682;000005194369;Alkema Belegging B.V.;Pieter Zeemanstraat;2;;8606JR;SNEEK;871687120052851784;871689740011311210;0;0515414301;M;J.;M.;;ALKEMA;;0;2;2467;1995;6420;Financiële holdings;Netherlands;hoog;hoog;0;;;;;0;0;0;0;0;0;0;0;0;1;1
22;01000699;000003045862;Modeschoenen Rutten;Grootzand;87;;8601AV;SNEEK;;871689740011220963;0;0515414584;F;A.;D.;J.;NOTA-RUTTEN;;2;;323;1890;47721;Winkels in schoenen;Netherlands;midden;hoog;0;;;;;0;0;0;0;0;0;0;1;0;0;1
23;01000726;000005691745;Woltman Beheer B.V.;Wolfraamweg;11;;8445PL;HEERENVEEN;871687110001865474;;0;0513632555;;R.;;;HUIZINGA;;0;56;4062;1970;6420;Financiële holdings;Netherlands;midden;midden;0;;;;;0;0;0;0;0;0;0;1;1;0;0
24;01000742;000002983028;Dillingh Woningstoffering-Zonwering;Vaart Zz;76;;8426AH;APPELSCHA;;;1;0516432181;M;W.;;;DILLINGH;www.dillingh.nl;1;;107;1981;47593;Winkels in artikelen voor woninginrichting algemeen assortiment;Netherlands;midden;laag;0;;;;;0;0;0;0;0;0;1;1;0;0;0
25;01000751;000017725046;Klunder Drachten;De Lange West;104;a;9201CH;DRACHTEN;871687120000266011;871687140020315285;0;0512511000;;;;;;www.klunder.nl;38;38;3042;1985;46741;Groothandel in ijzer- en metaalwaren;Netherlands;midden;hoog;0;;;;;0;0;0;0;0;0;0;1;0;0;1
26;01000815;000018515797;Schweigmann Onroerend Goed B.V.;Nieuwestad;109;;8911CN;LEEUWARDEN;871689740000407566;871689740010378665;0;0653848404;;G.;H.;J.;SCHWEIGMANN;;0;15;1015;1825;6420;Financiële holdings;Netherlands;midden;midden;0;;;;;0;0;0;0;0;0;0;1;1;0;0
27;01000857;000020248210;Het Noorderleegsbuitenveld B.V.;Van Harinxmaweg;17;;9246TL;OLTERTERP;871687120052025444;871689740010886733;0;0512381448;;;;;;;0;56;692;1903;68204;Verhuur van onroerend goed (niet van woonruimte);Netherlands;midden;hoog;0;;;;;0;0;0;0;0;0;0;1;0;0;1
28;01000866;000004616421;Banketbakkerij-Chocolaterie M. Boonstra;Zuiderbuurt;38;;9203CX;DRACHTEN;871687120050679489;871687140000847539;0;0512512266;;E.;;;HOFSTEDE;;9;;291;1930;1071;Vervaardiging van brood en vers banketbakkerswerk;Netherlands;hoog;hoog;0;;;;;0;0;0;0;0;0;0;0;0;1;1
29;01000904;000008603987;Van der Vegt Beheer B.V.;Fonteinkruid;43;;8445RX;HEERENVEEN;871687120053025092;871687140020368717;0;0513622533;M;W.;H.;;VAN DER VEGT;;1;2;172;2000;70102;Holdings (geen financiële);Netherlands;midden;midden;0;;;;;0;0;0;0;0;0;0;1;1;0;0
30;01000916;000006352472;Kamsma Schoenen Sneek;Grootzand;57;;8601AT;SNEEK;871687120051047850;871689740011220727;0;0515460349;M;J.;J.;;KAMSMA;;6;;298;1910;47721;Winkels in schoenen;Netherlands;hoog;hoog;0;;;;;0;0;0;0;0;0;0;0;0;1;1
31;01001006;000001018493;Noord-Nederlandse Schrootverwerking B.V.;Oostelijke Industrieweg;23;;8801JW;FRANEKER;871687120000014223;;0;0517393341;;J.;J.;;STAM;;10;1;1467;1930;46772;Groothandel in ijzer- en staalschroot en oude non-ferrometalen;Netherlands;hoog;hoog;0;;;;;0;0;0;0;0;0;0;0;0;1;1
32;01001085;000002291932;Oreel Beheer B.V.;Meekmawei;4;;9074TJ;HALLUM;871687120101632296;871689295900333144;0;0518431141;M;F.;N.;;OREEL;;1;;4509;1981;6420;Financiële holdings;Netherlands;midden;midden;0;;;;;0;0;0;0;0;0;0;1;1;0;0
33;01001235;000015130185;W.G. van der Kam Pensioen B.V.;Varkensmarkt;11;;3811LD;AMERSFOORT;871687400008433333;871687400002366507;0;0334612741;;W.;G.;;VAN DER KAM;www.vanderkamfashion.nl;0;;1681;1920;64303;Beleggingsinstellingen met beperkte toetreding;Netherlands;midden;hoog;0;;;;;0;0;0;0;0;0;0;1;0;0;1
34;01001274;000020368674;Bouwbedrijf Cornel;Produksjewei;8;;8501XD;JOURE;871687120052831892;871689740011766072;0;0513416262;;;;;;;28;;1598;1994;4120;Algemene burgerlijke en utiliteitsbouw;Netherlands;hoog;hoog;0;;;;;0;0;0;0;0;0;0;0;0;1;1
35;01001279;000019382634;Apotheek Wolvega B.V.;Hoofdstraat Oost;61;;8471JK;WOLVEGA;871687120101171412;871689740011861944;0;0561612708;M;W.;J.;;LAMPERT;;0;0;294;2002;6420;Financiële holdings;Netherlands;midden;midden;0;;;;;0;0;0;0;0;0;0;1;1;0;0
36;01001311;000001640747;V.O.F. Van Erp;Nieuwestad;28;;8911CT;LEEUWARDEN;871689740000406651;871689740010377859;0;0582123075;;P.;T.;;VAN ERP;www.firma.nl/vanerp;3;;492;1932;47597;Winkels in huishoudelijke artikelen algemeen assortiment;Netherlands;hoog;hoog;0;;;;;0;0;0;0;0;0;0;0;0;1;1
37;01001349;000005256593;Beleggingsmaatschappij Grouw B.V.;Meersweg;10;;9001BH;GROU;871687120050919561;871689740010926088;0;0566621894;M;S.;T.;;MOLENAAR;;1;;120;1936;6420;Financiële holdings;Netherlands;midden;midden;0;;;;;0;0;0;0;0;0;0;1;1;0;0
38;01001350;000015901696;Ruiterskwartier B.V.;Ruiterskwartier;4;;8911BP;LEEUWARDEN;871689740000465719;871689740010390452;0;0582330230;;;;;;www.harmonie.nl;34;48;6116;1994;9002;Dienstverlening voor uitvoerende kunst;Netherlands;midden;hoog;0;;;;;0;0;0;0;0;0;0;1;0;0;1
39;01001350;000015901696;Ruiterskwartier B.V.;Ruiterskwartier;4;;8911BP;LEEUWARDEN;871689740000465719;871689740010390452;0;0582330230;;;;;;www.harmonie.nl;34;48;6116;1994;9002;Dienstverlening voor uitvoerende kunst;Netherlands;midden;hoog;0;;;;;0;0;0;0;0;0;0;1;0;0;1
40;01001389;000009446397;Datas kantoor kompleet Sneek;Graaf Adolfstraat;36;a;8606BT;SNEEK;871687120052975596;871689740011306926;0;0515413061;;;;;;www.vdmeulen.nl;10;;291;1997;4651;Groothandel in computers, randapparatuur en software;Netherlands;hoog;hoog;0;;;;;0;0;0;0;0;0;0;0;0;1;1
41;01001481;000017407931;Kooistra Bolsward Beheer B.V.;Snekerstraat;14;;8701XD;BOLSWARD;871687120101628398;871689740011615066;0;0515574448;;R.;;;HAAGSMA;;0;535;2943;1991;6420;Financiële holdings;Netherlands;midden;midden;0;;;;;0;0;0;0;0;0;0;1;1;0;0
42;01001492;000015975428;Van der Kam Beheer B.V.;Gaudistraat;5;;3822EC;AMERSFOORT;871687400002352739;871687400002352746;0;0334552814;M;C.;J.;;VAN WAART;;0;0;325;1993;6420;Financiële holdings;Netherlands;midden;hoog;0;;;;;0;0;0;0;0;0;0;1;0;0;1
43;01001546;000018149324;De Metz Beheer B.V.;Van Boelenslaan;12;;9244EM;BEETSTERZWAAG;871687120052241714;871689740010774023;0;;M;A.;S.;;VAN DAM;;0;0;198;1952;6420;Financiële holdings;Netherlands;midden;midden;0;;;;;0;0;0;0;0;0;0;1;1;0;0
44;01001578;000006928196;Beheersmaatschappy Volharding Staveren B.V.;Noord;6;;8715HR;STAVOREN;871687110000017942;871689740030021565;0;0514682336;M;A.;N.;;VAN DER WERFF;;0;;429;2003;70102;Holdings (geen financiële);Netherlands;hoog;hoog;0;;;;;0;0;0;0;0;0;0;0;0;1;1
45;01001600;000001262904;Boek- en Kantoorboekhandel Friso;Hoofdstraat;5;;9001AM;GROU;871687120050921915;871689740010927603;0;0566621316;M;R.;;;BROLSMA;www.frisogrou.nl;5;;265;1874;4762;Winkels in kranten, tijdschriften en kantoorbehoeften;Netherlands;hoog;hoog;0;;;;;0;0;0;0;0;0;0;0;0;1;1
46;01001606;000018999700;Lampe Technical Textiles B.V.;Klompenmakersstraat;10;;8601WR;SNEEK;871687120000222499;871689740011359601;0;0515445544;;;;;;www.lampe.nl;43;43;3857;2002;1392;Vervaardiging van geconfectioneerde artikelen van textiel (geen kleding);Netherlands;midden;hoog;0;;;;;0;0;0;0;0;0;0;1;0;0;1
47;01001608;000015451682;Fa. A. Nauta;Noorderhaven;35;;8861AJ;HARLINGEN;871687120051951775;871689740010673203;0;0517412427;;J.;A.;;NAUTA;;5;;212;1875;4120;Algemene burgerlijke en utiliteitsbouw;Netherlands;midden;hoog;0;;;;;0;0;0;0;0;0;0;1;0;0;1
48;01001644;000004228308;Harms Holding B.V.;Diepswal;17;;9101LA;DOKKUM;871687120050935868;871689295900170381;0;0519292361;M;W.;L.;;HARMS;;0;17;601;1614;64303;Beleggingsinstellingen met beperkte toetreding;Netherlands;midden;midden;0;;;;;0;0;0;0;0;0;0;1;1;0;0
49;01001660;000014458624;Fa. H. van der Zee & Zn.;Grettingalaan;6;;8862ZC;HARLINGEN;871687120052966037;871689740010703641;0;0517415855;M;H.;L.;;VAN DER ZEE;;8;;736;1963;4120;Algemene burgerlijke en utiliteitsbouw;Netherlands;hoog;hoog;0;;;;;0;0;0;0;0;0;0;0;0;1;1
50;01001741;000013280589;EFO Paardenverzekering;Turfschip;11;;8447DM;HEERENVEEN;871687120052948491;871687140020853282;0;0513622275;M;H.;;;DE JONG;;9;;300;1976;65121;Schadeverzekeringen, exclusief zorgverzekeringen;Netherlands;hoog;hoog;0;;;;;0;0;0;0;0;0;0;0;0;1;1
51;01001760;000005035503;Koornstra Holding B.V.;Het Meer;106;;8448GM;HEERENVEEN;871687110000096534;871687140021175482;0;0513622158;M;A.;;;KOORNSTRA;;1;;111;1974;6420;Financiële holdings;Netherlands;midden;midden;0;;;;;0;0;0;0;0;0;0;1;1;0;0
52;01001762;000002174618;Firma Reijenga;Hagenadyk;12;;8614AB;OUDEGA;871687120051336473;871689740011489599;0;0515469418;;P.;;;REIJENGA;;3;;148;1960;4711;Supermarkten en dergelijke winkels met een algemeen assortiment voedings- en genotmiddelen;Netherlands;hoog;midden;0;;;;;0;0;0;0;0;0;0;0;1;1;0
53;01001782;000003990192;Bakkerij De Boer;Grootzand;26;;8601AW;SNEEK;871687120051048109;871689740011220420;0;0515419015;;D.;;;DE BOER;;4;;390;1890;1071;Vervaardiging van brood en vers banketbakkerswerk;Netherlands;hoog;hoog;0;;;;;0;0;0;0;0;0;0;0;0;1;1
54;01001832;000011390107;Boekhandel Van der Velde Holding B.V.;Nieuwestad;59;;8911CJ;LEEUWARDEN;;;0;0582132360;;;;;;;0;43;;;70102;Holdings (geen financiële);Netherlands;;;0;;;;;0;0;0;0;0;0;0;0;0;0;0
55;01001902;000010394400;Vermeulen Leeuwarden Beheer B.V.;Dobbehof;59;;9084DP;GOUTUM;871689740000453860;871689740010422689;0;0582883192;;J.;J.;;HOOGEBOOM;;1;;315;2000;6420;Financiële holdings;Netherlands;midden;midden;0;;;;;0;0;0;0;0;0;0;1;1;0;0
56;01001914;000012283576;Van der Werf's Bouwstoffen B.V.;Oordje;3;;8701WD;BOLSWARD;871687120051457963;871689740011633961;0;0515572321;;J.;G.;;VAN DER WERF;;6;;1402;1915;46739;Groothandel in bouwmaterialen algemeen assortiment;Netherlands;hoog;hoog;0;;;;;0;0;0;0;0;0;0;0;0;1;1
57;01001925;000007701179;Binnenwerk;Grote Kerkstraat;12;;8911EC;LEEUWARDEN;871689740000424419;871689740010395471;0;0582124701;;O.;M.;;STEENHUIZEN;;2;;293;1876;47593;Winkels in artikelen voor woninginrichting algemeen assortiment;Netherlands;hoog;hoog;0;;;;;0;0;0;0;0;0;0;0;0;1;1
58;01001937;000014811286;Bokam Holding B.V.;Apolloweg;20;;8938AT;LEEUWARDEN;871689740000004468;871689740010003758;0;0582125334;;S.;C.;;BOSKMA;www.wijbengainstallaties.nl;0;;562;2001;6630;Vermogensbeheer;Netherlands;hoog;hoog;0;;;;;0;0;0;0;0;0;0;0;0;1;1
59;01001940;000013811029;Slagerij Emile Terpstra;Dijkstraat;63;;8801LT;FRANEKER;871687120052196199;871689740010601473;0;0517392251;;E.;P.;;TERPSTRA;;6;;264;1927;47221;Winkels in vlees en vleeswaren;Netherlands;hoog;hoog;0;;;;;0;0;0;0;0;0;0;0;0;1;1
60;01001944;000019904819;Smilde Beheer B.V.;Industrieweg;11;;8444AS;HEERENVEEN;871687120101436016;871687140021127979;0;0513639222;M;R.;M.;;PRINCE;;0;278;5900;1963;6420;Financiële holdings;Netherlands;midden;hoog;0;;;;;0;0;0;0;0;0;0;1;0;0;1
61;01002008;000031963536;Barentsen Holding B.V.;Stripe;1;;9241GZ;WIJNJEWOUDE;871687120051056272;871689740030180736;0;;M;A.;R.;W.;BARENTSEN;;0;;76;1900;6420;Financiële holdings;Netherlands;midden;hoog;0;;;;;0;0;0;0;0;0;0;1;0;0;1
62;01002022;000004932919;Woninginrichting Peereboom;Hoofdstraat;69;-71;8401BX;GORREDIJK;871687120051667928;871689740010800432;0;0513541199;M;T.;E.;;PEEREBOOM;;3;;;;47718;Textielsupermarkten;Netherlands;;;0;;;;;0;0;0;0;0;0;0;0;0;0;0
63;01002037;000001842064;Fa. Schildersbedrijf De Jager;Ds L Tinholtstraat;34;;8723CX;KOUDUM;871687120101416629;871689740030001130;0;0514522030;M;J.;;;DE JAGER;;2;;107;2004;4334;Schilderen en glaszetten;Netherlands;midden;laag;0;;;;;0;0;0;0;0;0;1;1;0;0;0
64;01002063;000016810279;Harteigen B.V.;Harstawei;3;;9013CW;POPPENWIER;871687120051229072;871689740010970647;0;0582501214;M;K.;D.;;DE VRIES;;0;15;281;1832;70102;Holdings (geen financiële);Netherlands;midden;midden;0;;;;;0;0;0;0;0;0;0;1;1;0;0
65;01002139;000004113454;Makelaardij Sikkema;Oliemolensingel;6;;9291GN;KOLLUM;871687110000732708;871689213000248137;0;0511541056;M;R.;M.;;SIKKEMA;www.sikkemamakelaar.nl;2;;223;2007;6831;Bemiddeling bij handel, huur of verhuur van onroerend goed;Netherlands;midden;midden;0;;;;;0;0;0;0;0;0;0;1;1;0;0
66;01002169;000017581583;Stork Friesland;Van Deventerlaan;121;;3528AG;UTRECHT;;;0;0306691700;;;;;;;0;6114;7639;2005;6420;Financiële holdings;Netherlands;hoog;hoog;0;;;;;0;0;0;0;0;0;0;0;0;1;1
67;01002176;000006525571;Livestock Trading Comp. P. Visser & Zn.;Lollumerweg;6;A;8804RX;TZUM;871687110001099039;871689740030173592;0;0517393888;M;P.;;;VISSER;;2;;210;2008;01411;Houden van melkvee;Netherlands;hoog;midden;0;;;;;0;0;0;0;0;0;0;0;1;1;0
68;01002198;000002426781;De Jong Beheer B.V.;Leitswei;4;;8401CL;GORREDIJK;;;0;;;;;;;;0;107;12639;1990;6420;Financiële holdings;Netherlands;midden;hoog;0;;;;;0;0;0;0;0;0;0;1;0;0;1
69;01002223;000016758471;B.V. Belegg. & Exploitatiemij. Doeksen en Zn.;Willem Barentszkade;21;;8881BC;WEST-TERSCHELLING;;871689740010746167;0;;M;P.;J.;M.;MELLES;;0;226;108;1850;6420;Financiële holdings;Netherlands;midden;hoog;0;;;;;0;0;0;0;0;0;0;1;0;0;1
70;01002233;000000914193;fa. Willemsma;Bartelaar;3;;9468CJ;ANNEN;871694840004261989;871694840011527399;1;;M;M.;A.;;WILLEMSMA;www.willemsma.nl;1;;164;1863;47916;Detailhandel via internet in vrijetijdsartikelen;Netherlands;midden;midden;0;;;;;0;0;0;0;0;0;0;1;1;0;0
71;01002247;000003884309;Juwelier v.d. Meulen;Zuiderbuurt;25;;9203CT;DRACHTEN;871687120051697925;871687140010739015;0;0512512381;;J.;J.;;BOUKAMP;www.juweliervandermeulen.nl;8;;204;1850;4777;Winkels in juweliersartikelen en uurwerken;Netherlands;hoog;hoog;0;;;;;0;0;0;0;0;0;0;0;0;1;1
72;01002249;;Wed. S. Joustra en Zoon B.V.;Prof Cobbenhagenlaan;75;;5037DB;TILBURG;871687910000097889;;0;;;;;;;;6;;2027;2001;;;Netherlands;midden;hoog;0;;;;;0;0;0;0;0;0;0;1;0;0;1
73;01002252;000019351259;B.V. Rederij G. Doeksen en Zonen;Willem Barentszkade;21;;8881BC;WEST-TERSCHELLING;;871689740010746167;0;;M;P.;J.;M.;MELLES;www.rederij-doeksen.nl;0;226;108;1850;5010;Zee- en kustvaart (passagiersvaart en veerdiensten);Netherlands;hoog;hoog;0;;;;;0;0;0;0;0;0;0;0;0;1;1
74;01002277;000015613925;Gebr. Sikma B.V.;Roodhemsterweg;20;;8651CV;IJLST;871687120053048985;871689740011475004;0;0515415307;;B.;;;SIKMA;;20;;998;2000;43221;"Loodgieters- en fitterswerk; installatie van sanitair";Netherlands;hoog;midden;0;;;;;0;0;0;0;0;0;0;0;1;1;0
75;01002338;000016526791;Van Smeden Participatie;Hoge der A;9;;9712AC;GRONINGEN;871694840003574417;871694840010197678;0;0503126633;;;;;;;0;1;489;1850;64923;Participatiemaatschappijen;Netherlands;midden;hoog;0;;;;;0;0;0;0;0;0;0;1;0;0;1
76;01002365;000017949149;Jeyka Holding B.V.;Legedyk;2;;8935DG;LEEUWARDEN;871689740000006004;871689740010005004;0;0592394260;;J.;Y.;;KOOISTRA;;0;350;1813;1991;6420;Financiële holdings;Netherlands;midden;hoog;0;;;;;0;0;0;0;0;0;0;1;0;0;1
77;01002440;000016438809;Aannemersbedrijf Houwer Jansen B.V.;Molenhoek;4;;8421PH;OLDEBERKOOP;871687120052432044;871689740011182988;0;0516451419;;A.;F.;;JANSEN;;8;8;805;1930;4120;Algemene burgerlijke en utiliteitsbouw;Netherlands;midden;hoog;0;;;;;0;0;0;0;0;0;0;1;0;0;1
78;01002445;000012832006;F. Groen Beheer B.V.;Smidsstraat;22;;8601WB;SNEEK;871687120000267636;871689740011358598;0;0515413388;M;F.;;;GROEN;;0;20;2425;2001;6420;Financiële holdings;Netherlands;hoog;midden;0;;;;;0;0;0;0;0;0;0;0;1;1;0
79;01002461;000028864921;Dutch Dairy Ingredients B.V.;Oude Rijksweg;395;;7954GH;ROUVEEN;871694831000072082;871691201601057109;0;0582844242;M;S.;;;MELLES;;0;;15562;1952;64923;Participatiemaatschappijen;Netherlands;midden;midden;0;;;;;0;0;0;0;0;0;0;1;1;0;0
80;01002467;000004883772;Keizer Heerenveen B.V.;Jol;36;;8446EZ;HEERENVEEN;871687120052513910;871687140001068971;0;0513622571;;R.;K.;;KEIZER;;1;;94;1973;6420;Financiële holdings;Netherlands;midden;laag;0;;;;;0;0;0;0;0;0;1;1;0;0;0
81;01002639;000012003859;Florex B.V.;Florencestraat;1;;8701CH;BOLSWARD;871687120050838015;871689740011623528;0;0515576615;M;T.;H.;M.;MULDER;;2;391;507;1928;6420;Financiële holdings;Netherlands;midden;hoog;0;;;;;0;0;0;0;0;0;0;1;0;0;1
82;01002640;000006984541;Onderl.Paardenfonds Ooststellingwerf E.O. WA;Tronde;7;;8424SK;ELSLOO;871687120052635162;871689740011195179;0;0516523122;M;A.;;;VAN DEN BERG;;3;;124;1930;65121;Schadeverzekeringen, exclusief zorgverzekeringen;Netherlands;midden;hoog;0;;;;;0;0;0;0;0;0;0;1;0;0;1
83;01002699;000003382184;Beh.mij. Joh. Magre's Handel & Industrie B.V.;De Boech;17;;9036NP;MENAAM;871687120052563984;871689740010541069;0;0651159357;M;A.;J.;T.;MAGRÉ;;0;4;163;1973;6420;Financiële holdings;Netherlands;midden;midden;0;;;;;0;0;0;0;0;0;0;1;1;0;0
84;01002700;000014147793;Ganzevoort Beheer B.V.;Noordersingel;88;C;8917BC;LEEUWARDEN;871689740000354600;871689740010328646;0;;M;C.;W.;;GANZEVOORT;;2;;161;1894;6420;Financiële holdings;Netherlands;midden;hoog;0;;;;;0;0;0;0;0;0;0;1;0;0;1
85;01002773;000016962818;Apotheek van der Sluis;Simmerdyk;14;G;8601ZP;SNEEK;871687110000175079;871689740030047558;0;0515425050;;;;;;www.apotheekvandersluis.nl;23;;560;2003;4773;Apotheken;Netherlands;midden;midden;0;;;;;0;0;0;0;0;0;0;1;1;0;0
86;01002780;000010747168;R. Damstra;Leeuwarderweg;5;;8801BS;FRANEKER;871687120051582764;871689740010642476;0;0630184550;M;R.;;;DAMSTRA;;1;;243;1926;4120;Algemene burgerlijke en utiliteitsbouw;Netherlands;laag;midden;0;;;;;0;0;0;0;0;1;0;0;1;0;0
87;01002817;000018191924;Verenigde Nederlandse Bioscopen B.V.;Bagijnestraat;58;a;8911DS;LEEUWARDEN;871689740000423924;871689740010394979;0;0582137765;F;J.;M.;;OSINGA-VAN SIJTSEMA;;4;40;300;1575;5914;Bioscopen;Netherlands;hoog;hoog;0;;;;;0;0;0;0;0;0;0;0;0;1;1
88;01002873;000008474850;Vlietstra Exploitatiemaatschappij B.V.;Canterstate;3;;8925BE;LEEUWARDEN;871689740000209290;871689740010186789;0;0582673331;M;H.;B.;;VLIETSTRA;;0;;148;1986;4652;Groothandel in elektronische en telecommunicatieapparatuur en bijbehorende onderdelen;Netherlands;midden;midden;0;;;;;0;0;0;0;0;0;0;1;1;0;0
89;01002875;000007692269;Mij. tot Expl. v. o/ g, Neerlands Reid B.V.;Kooiweg;30;;9164KM;BUREN;871687120051273969;871689295900585918;0;0519543777;M;W.;P.;;BROUWER;;1;;111;1955;68204;Verhuur van onroerend goed (niet van woonruimte);Netherlands;midden;midden;0;;;;;0;0;0;0;0;0;0;1;1;0;0
90;01002886;000015589455;"Het Onderling Paardenfonds Dantumadeel e.o.""""";Ds. Feitsmawei;1;a;9108NE;BROEKSTERWÂLD;871687110000579495;871689295900513010;0;0511421297;M;L.;;;WIERSMA;;2;;1049;1979;65121;Schadeverzekeringen, exclusief zorgverzekeringen;Netherlands;midden;hoog;0;;;;;0;0;0;0;0;0;0;1;0;0;1
91;01002936;000004006976;P.A. Smilde en Zonen;Ludingaweg;33;A;8862BL;HARLINGEN;871687120052910573;871689740010712964;0;0653305710;M;L.;G.;;SMILDE;;3;;205;1918;01451;Fokken en houden van schapen;Netherlands;hoog;hoog;0;;;;;0;0;0;0;0;0;0;0;0;1;1
92;01002957;;St.Beheer Erfpacht Duinkersoord & Vliepark;Jan Pelleboerplein;1;;9765BR;PATERSWOLDE;871694840006436866;871694840015595660;0;;;D.;W.;;VAN DER VORM;www.sbev.nl;0;;265;1977;6420;Financiële holdings;Netherlands;midden;midden;0;;;;;0;0;0;0;0;0;0;1;1;0;0
93;01002977;000016993438;Fenner Dunlop;Oliemolenstraat;2;;9203ZN;DRACHTEN;871687120000000462;;0;0512585555;M;E.;R.;;HAVE;www.fennerdunlop.com;249;285;18957;1955;2219;Vervaardiging van producten van rubber (geen banden);Netherlands;midden;midden;0;;;;;0;0;0;0;0;0;0;1;1;0;0
94;01003093;000012378283;W. van der Werff Beheer B.V.;Harlingerstraat;1;;8701WP;BOLSWARD;871687120051459264;871689740011634357;0;0515572550;;W.;;;VAN DER WERFF;;0;0;606;1984;70102;Holdings (geen financiële);Netherlands;midden;hoog;0;;;;;0;0;0;0;0;0;0;1;0;0;1
95;01003261;000015556360;Slagerij J. de Walle;Achter de Hoven;113;;8933CK;LEEUWARDEN;871689740000139733;871689740010129038;0;0582125214;M;J.;;;DE WALLE;;2;;235;1909;47221;Winkels in vlees en vleeswaren;Netherlands;hoog;hoog;0;;;;;0;0;0;0;0;0;0;0;0;1;1
96;01003298;000004859227;Beleggingsmaatschappij Coeduyn B.V.;Aloysiusstraat;30;;8471LS;WOLVEGA;871687120053066422;871689740011000039;0;0561615200;;R.;;;FEENSTRA;;0;;211;2001;6420;Financiële holdings;Netherlands;midden;midden;0;;;;;0;0;0;0;0;0;0;1;1;0;0
97;01003310;000010899332;Krol B.V.;Lanen;75;;8861CC;HARLINGEN;;871689740010670301;0;0517412581;M;J.;J.;;KROL;;0;;;;6420;Financiële holdings;Netherlands;;;0;;;;;0;0;0;0;0;0;0;0;0;0;0
98;01003339;000015198146;Pirola B.V.;Sleutelbloem;52;;8935RR;LEEUWARDEN;871689740000109378;871689740010098860;1;0582125019;M;S.;E.;;WENDELAAR BONGA;;0;;180;1979;64303;Beleggingsinstellingen met beperkte toetreding;Netherlands;midden;midden;0;;;;;0;0;0;0;0;0;0;1;1;0;0
99;01003382;000009821341;Wierda's Slagerij;Harinxmastrjitte;61;;8621BK;HEEG;871687120051524061;871689740011503813;0;0515442282;;R.;;;WIERDA;;3;;151;1860;47221;Winkels in vlees en vleeswaren;Netherlands;midden;hoog;0;;;;;0;0;0;0;0;0;0;1;0;0;1
100;01003385;000002689723;Hotel Van der Meer;Woudweg;1;;9101VH;DOKKUM;871687120051748306;871689295900211954;0;0519292380;;A.;G.;;VAN DER MEER;www.hotelvandermeer.nl;8;;349;1880;55101;Hotel-restaurants;Netherlands;hoog;hoog;0;;;;;0;0;0;0;0;0;0;0;0;1;1
101;01003411;000011833122;Keurslagerij K.G. Dijkstra;Dijkstraat;47;;8801LT;FRANEKER;871687120052196083;;0;0517392795;;K.;G.;;DIJKSTRA;;8;;246;1900;47221;Winkels in vlees en vleeswaren;Netherlands;hoog;hoog;0;;;;;0;0;0;0;0;0;0;0;0;1;1
102;01003446;000018790364;Cosmo Trucks Friesland B.V.;Ceintuurbaan;50;;8024AA;ZWOLLE;871694840032252331;871694831000219760;0;;;;;;;www.cosmotrucks.nl;50;1023;3528;1960;6630;Vermogensbeheer;Netherlands;hoog;hoog;0;;;;;0;0;0;0;0;0;0;0;0;1;1
103;01003446;000018790437;Cosmo Trucks Heerenveen;Pluto;4;-6;8448CM;HEERENVEEN;871687110000969319;871687140022169787;0;0513657065;;;;;;;5;1023;2740;2008;45192;Handel in en reparatie van zwaardere bedrijfsauto's (geen import van nieuwe);Netherlands;hoog;hoog;0;;;;;0;0;0;0;0;0;0;0;0;1;1
104;01003456;000004998669;Haytema B.V.;Vrouwbuurtstermolen;14;;9077SW;VROUWENPAROCHIE;871687120050859782;871689740010519983;0;0518401513;;;;;;;1;;134;1915;70102;Holdings (geen financiële);Netherlands;midden;midden;0;;;;;0;0;0;0;0;0;0;1;1;0;0
105;01003535;000016588738;Steenhouwerij Fransen B.V.;Leeuwarderstraatweg;57;;8441PH;HEERENVEEN;871687120050742794;871687140002533430;0;0513624985;M;P.;A.;;FRANSEN;www.fransen-natuursteen.nl;1;2;131;1935;6420;Financiële holdings;Netherlands;midden;midden;0;;;;;0;0;0;0;0;0;0;1;1;0;0
106;01003586;000007226314;Van Randen Vastgoed B.V.;Weeshuisstraat;22;;8861XC;HARLINGEN;871687120051150482;871689740010692471;0;0517412882;M;T.;H.;;VAN RANDEN;;1;2;240;1900;6420;Financiële holdings;Netherlands;midden;hoog;0;;;;;0;0;0;0;0;0;0;1;0;0;1
107;01003678;000012412694;B. Dechesne B.V.;Sylroedepaad;5;;8494NJ;NES;871687120051739038;871689740010914566;0;0566652339;;H.;B.;;DECHESNE;;0;;131;1832;6420;Financiële holdings;Netherlands;midden;midden;0;;;;;0;0;0;0;0;0;0;1;1;0;0
108;01003791;000020075510;Riemersma Beheer B.V.;Master Iniawei;24;;9219VR;DE TIKE;871687120051743554;871687140002199230;0;0512372820;M;W.;T.;;RIEMERSMA;;0;0;373;1920;6420;Financiële holdings;Netherlands;midden;hoog;0;;;;;0;0;0;0;0;0;0;1;0;0;1
109;01003947;000002349973;Hauser Beheer B.V.;Foarryp;19;;8857RE;WIJNALDUM;871687120050914375;871689740010729177;0;;M;C.;J.;;HAUSER;;0;;326;1999;64303;Beleggingsinstellingen met beperkte toetreding;Netherlands;midden;midden;0;;;;;0;0;0;0;0;0;0;1;1;0;0
110;01003983;000017444349;Exploitatiemaatschappij De Roef B.V.;De Roef;2;;9206AK;DRACHTEN;871687120000796150;871687140002862059;0;0512589010;;;;;;;0;0;1391;1977;6420;Financiële holdings;Netherlands;midden;midden;0;;;;;0;0;0;0;0;0;0;1;1;0;0
111;01003989;000019763905;Miedema Exploitatie B.V.;Uranusweg;1;;8938AJ;LEEUWARDEN;871689700000029854;871689740010002294;0;0582888829;;;;;;;6;64;15047;1980;6420;Financiële holdings;Netherlands;midden;midden;0;;;;;0;0;0;0;0;0;0;1;1;0;0
112;01003989;000019763905;Miedema Exploitatie B.V.;Uranusweg;1;;8938AJ;LEEUWARDEN;871689700000029854;871689740010002294;0;0582888829;;;;;;;6;64;15047;1980;6420;Financiële holdings;Netherlands;midden;midden;0;;;;;0;0;0;0;0;0;0;1;1;0;0
113;01003999;000002862387;J.F. Plantinga Holding B.V.;Legedyk;12;;8629RM;SCHARNEGOUTUM;871687120051014814;871689740011371351;0;0515412590;;J.;F.;;PLANTINGA;;2;10;172;1930;6420;Financiële holdings;Netherlands;midden;midden;0;;;;;0;0;0;0;0;0;0;1;1;0;0
114;01004026;000005067715;Copini Juwelier Horloger;Zaailand;137;;8911BL;LEEUWARDEN;;;0;0582125221;;A.;J.;J.;COPINI;www.juweliercopini.nl;6;;82;1989;4777;Winkels in juweliersartikelen en uurwerken;Netherlands;hoog;hoog;0;;;;;0;0;0;0;0;0;0;0;0;1;1
115;01004069;000016135873;Douma Staal B.V.;Voltastraat;5;;8606JW;SNEEK;;871689740011312088;0;0515411211;M;J.;M.;;DE GROOT;www.doumastaal.nl;36;59;31651;2003;46722;Groothandel in ferrometalen en -halffabrikaten;Netherlands;hoog;hoog;0;;;;;0;0;0;0;0;0;0;0;0;1;1
116;01004097;000009076328;J. Eringa Beheer B.V.;de Leijen;3;;8604CE;SNEEK;871687120051767758;871689740011295510;0;0515413216;M;J.;;;ERINGA;;1;;203;1975;6420;Financiële holdings;Netherlands;midden;midden;0;;;;;0;0;0;0;0;0;0;1;1;0;0
117;01004248;000001815555;P. van Manen;Optwizel;81;;9286EC;TWIJZEL;871687120052067222;871689295900030968;1;0511541302;;P.;;;VAN MANEN;;1;;449;1905;4753;Winkels in vloerbedekking en gordijnen;Netherlands;midden;hoog;0;;;;;0;0;0;0;0;0;0;1;0;0;1
118;01004254;000006796257;Café Zaal 't Hert;Midstraat;40;;8501AR;JOURE;871687120051289489;871689740011746227;1;0513412112;M;J.;;;GULMANS;;7;;428;1900;5630;Cafés;Netherlands;hoog;hoog;0;;;;;0;0;0;0;0;0;0;0;0;1;1
119;01004358;000017480094;A.B. Wijmenga B.V.;Fricoweg;47;;9005PC;WERGEA;871687120052928714;871689740010954487;0;0582552277;M;A.;B.;;WYMENGA;;4;4;3740;1950;46218;Groothandel in akkerbouwproducten en veevoeder algemeen assortiment;Netherlands;hoog;hoog;0;;;;;0;0;0;0;0;0;0;0;0;1;1
120;01004397;000013291475;Hoeksma Beheer;Raadhuisplein;290;;9203ED;DRACHTEN;871687110002459245;;0;0512354336;M;P.;F.;;HOEKSMA;;1;;81;2014;6420;Financiële holdings;Netherlands;midden;laag;0;;;;;0;0;0;0;0;0;1;1;0;0;0
121;01004408;000010999558;Kolonie Holding;Kolonieweg;95;;7971RB;HAVELTE;871694840006357192;871691203000086162;1;0521342810;F;Z.;;;DIJKSTRA-BEUKEMA;;2;;120;1994;64303;Beleggingsinstellingen met beperkte toetreding;Netherlands;midden;laag;0;;;;;0;0;0;0;0;0;1;1;0;0;0
122;01004414;000006755453;Bart De Vries Transport Joure;Firmawei;14;;8501XL;JOURE;871687120100296154;871689740011850597;0;0513412481;;B.;T.;;DE VRIES;;4;;305;2002;4941;Goederenvervoer over de weg (geen verhuizingen);Netherlands;hoog;midden;0;;;;;0;0;0;0;0;0;0;0;1;1;0
123;01004442;000006172938;Garage Kemker;Nieuweweg;8;-10;8723EA;KOUDUM;;871689740011533247;0;0514521436;M;H.;;;KEMKER;www.kemker.nl;14;;;;45112;Handel in en reparatie van personenauto's en lichte bedrijfsautos (geen import van nieuwe);Netherlands;;;0;;;;;0;0;0;0;0;0;0;0;0;0;0
124;01004469;000008944547;W.J. De Boer Pensioen B.V.;Taeke Schuilengalaan;4;;9231GV;SURHUISTERVEEN;871687120052038604;871689295900237565;0;0512362531;M;W.;J.;;DE BOER;;0;;149;1952;6630;Vermogensbeheer;Netherlands;midden;hoog;0;;;;;0;0;0;0;0;0;0;1;0;0;1
125;01004472;000000898201;A. en T. de Jong;Vermaningsteeg;4;;8441GB;HEERENVEEN;871687120051372860;;0;0513645484;F;A.;T.;A.;DE JONG;;3;;45;1930;47712;Winkels in dameskleding;Netherlands;midden;midden;0;;;;;0;0;0;0;0;0;0;1;1;0;0
126;01004519;000013380753;Engelsma Beheer B.V.;Nieuw-Rapenburg;19;;8935BE;LEEUWARDEN;871689740000101518;871689740010091083;0;;;W.;;;ENGELSMA;;0;2;258;1970;6420;Financiële holdings;Netherlands;midden;hoog;0;;;;;0;0;0;0;0;0;0;1;0;0;1
127;01004663;000018260756;Container Services Holwerda B.V.;De Roef;23;;9206AK;DRACHTEN;871687120050679809;871687140004669540;0;0512741555;M;N.;;;VISSER;;0;3;100;1978;8121;Interieurreiniging van gebouwen;Netherlands;midden;midden;0;;;;;0;0;0;0;0;0;0;1;1;0;0
128;01004666;000015418995;Van der Hoef;Heerenveenseweg;30;;8471BE;WOLVEGA;871687120051596761;871689740010985443;0;0561612516;M;P.;;;VAN DER HOEF;;3;;79;1923;68204;Verhuur van onroerend goed (niet van woonruimte);Netherlands;midden;midden;0;;;;;0;0;0;0;0;0;0;1;1;0;0
129;01004724;000010326448;Installatiebedrijf Fa. Dijkstra;Buorren;109;;8851EM;TZUMMARUM;871687120052387832;871689740010589566;0;0518481875;;D.;;;DIJKSTRA;www.bewustvitaal.com;2;;169;1900;43221;"Loodgieters- en fitterswerk; installatie van sanitair";Netherlands;midden;midden;0;;;;;0;0;0;0;0;0;0;1;1;0;0
130;01004732;000002930080;Auto Smit;Kramerswei;2;;8723EW;KOUDUM;871687120052675816;;0;0514523060;M;H.;;;SMIT;www.smitkoudum.nl;4;;365;1990;45112;Handel in en reparatie van personenauto's en lichte bedrijfsautos (geen import van nieuwe);Netherlands;midden;midden;0;;;;;0;0;0;0;0;0;0;1;1;0;0
131;01004743;000004455622;Onderl. Paardenverzekering Achtkarspelen W.A.;Dokter Keijserstraat;10;;9231EZ;SURHUISTERVEEN;871687120052039762;871689295900229386;1;0630108510;M;S.;;;VAN DER MEER;;1;;118;1961;65121;Schadeverzekeringen, exclusief zorgverzekeringen;Netherlands;laag;midden;0;;;;;0;0;0;0;0;1;0;0;1;0;0
132;01004767;000002199335;Frank Jager Motoren B.V.;Holdingawei;33;;9053LT;FEINSUM;871687120051809182;871689740010472417;0;0582574701;;F.;H.;;JAGER;;0;;207;1986;6420;Financiële holdings;Netherlands;midden;midden;0;;;;;0;0;0;0;0;0;0;1;1;0;0
133;01004860;000017132274;Smit Skoaterwâld Management B.V.;Willem Lodewijklaan;74;;8448PK;HEERENVEEN;871687110000238200;871687140021357215;0;0513636944;M;J.;;;SMIT;;0;1;200;2005;6420;Financiële holdings;Netherlands;midden;midden;0;;;;;0;0;0;0;0;0;0;1;1;0;0
134;01004862;000008868050;W.T. de Jong Management en Beheer B.V.;Reafinne;25;;8614AH;OUDEGA;871687120051337562;871689740011491202;0;0515469554;M;W.;T.;;DE JONG;;1;8;254;1976;6420;Financiële holdings;Netherlands;midden;midden;0;;;;;0;0;0;0;0;0;0;1;1;0;0
135;01004921;000010693807;De Witte Beheer B.V.;Kwartelstraat;48;;8916BP;LEEUWARDEN;871689740000369123;871689740010342734;0;0582131010;M;T.;M.;;DE WITTE;www.dewitte.nl;0;;148;1932;64303;Beleggingsinstellingen met beperkte toetreding;Netherlands;laag;midden;0;;;;;0;0;0;0;0;1;0;0;1;0;0
136;01004933;000011658436;Ond. Paardenverz Wijmbritseradiel e.o. W.A.;De Burd;8;;8621JX;HEEG;871687120051523378;871689740011504759;1;0515579469;M;W.;;;DE BOER;;1;;2050;1863;65121;Schadeverzekeringen, exclusief zorgverzekeringen;Netherlands;midden;hoog;0;;;;;0;0;0;0;0;0;0;1;0;0;1
137;01004938;000015941485;Autobedrijf Van der Heide Balk B.V.;Geert van der Zwaagweg;31;;8448RM;HEERENVEEN;871687120052532836;871689740011548296;0;0514603641;M;W.;;;VAN DER HEIDE;www.autovdheide.nl;7;32;192;2008;45112;Handel in en reparatie van personenauto's en lichte bedrijfsautos (geen import van nieuwe);Netherlands;hoog;hoog;0;;;;;0;0;0;0;0;0;0;0;0;1;1
138;01004974;000012918865;Firma Wierda;Steenwijkerweg;1;;8471KV;WOLVEGA;871687120051994321;871689740010980301;0;0561612325;;H.;;;PESMAN;;5;;179;1968;47718;Textielsupermarkten;Netherlands;hoog;midden;0;;;;;0;0;0;0;0;0;0;0;1;1;0
139;01005007;000003069834;Fa. S. van der Wielen en Zonen;Foarstrjitte;9;;9151HD;HOLWERD;871687120052310717;871689295900309392;0;0519561357;M;O.;;;HAITSMA;;10;;230;1880;4120;Algemene burgerlijke en utiliteitsbouw;Netherlands;hoog;hoog;0;;;;;0;0;0;0;0;0;0;0;0;1;1
140;01005010;000008621551;Fokke Oosterbaan B.V.;J.P. Wiersmawei;10;;8915HV;LEEUWARDEN;871689740000399656;871689740010370881;0;0582135337;;E.;L.;M.;OOSTERBAAN;;0;;123;1977;64303;Beleggingsinstellingen met beperkte toetreding;Netherlands;laag;midden;0;;;;;0;0;0;0;0;1;0;0;1;0;0
141;01005070;000020046391;Bakkerij Andringa;Hoofdstraat;66;;9001AN;GROU;871687120050922134;871689740010927801;0;0566621570;;;;;;;0;2;228;1952;70102;Holdings (geen financiële);Netherlands;hoog;midden;0;;;;;0;0;0;0;0;0;0;0;1;1;0
142;01005268;000019596812;Hotel Café 't Anker;Eewal;73;;8911GS;LEEUWARDEN;;;0;0582125216;;;;;;;9;;867;1900;55102;Hotels (geen hotel-restaurants), pensions en conferentieoorden;Netherlands;hoog;hoog;0;;;;;0;0;0;0;0;0;0;0;0;1;1
143;01005314;000016503449;Taxi Troost en de Boer B.V.;Magnesiumweg;2;;8471XM;WOLVEGA;871687120053063810;871689740010988819;0;0561612643;;;;;;www.taxiheerenveen.com;26;26;175;2000;4932;Vervoer per taxi;Netherlands;hoog;hoog;0;;;;;0;0;0;0;0;0;0;0;0;1;1
144;01005402;000001989944;Gebr. Van Netten;Munkedyk;30;;8611JN;GAASTMEER;871687120052442128;871689740011493848;0;0515469505;M;A.;;;VAN NETTEN;;2;;140;1973;0312;Binnenvisserij;Netherlands;midden;midden;0;;;;;0;0;0;0;0;0;0;1;1;0;0
145;01005448;000018395821;Modderman Beheer B.V.;Streek;192;;8463NJ;ROTSTERHAULE;871687120000239374;871689740011810775;0;0513551226;;M.;;;MODDERMAN;;0;16;2733;1950;6420;Financiële holdings;Netherlands;midden;midden;0;;;;;0;0;0;0;0;0;0;1;1;0;0
146;01005459;000009713778;Brolsma's Slagerij;Langebuorren;13;;9051BD;STIENS;871687120051005324;871689740010443851;0;0582571271;;P.;;;BROLSMA;www.brolsma.keurslager.nl;10;;332;1890;47221;Winkels in vlees en vleeswaren;Netherlands;hoog;hoog;0;;;;;0;0;0;0;0;0;0;0;0;1;1
147;01005523;000008453403;V.O.F. Reijenga Bakkerij;Zuidkade;47;;9203CN;DRACHTEN;871687120000794828;871687140006881506;0;0512512388;;J.;;;REIJENGA;;10;;567;1958;1071;Vervaardiging van brood en vers banketbakkerswerk;Netherlands;hoog;midden;0;;;;;0;0;0;0;0;0;0;0;1;1;0
148;01005526;000012718068;Beheermaatschappij Van der Sluis B.V.;Broekfinne;58;;9213RK;DE WILGEN;871687120052929339;871687140020812227;0;0512513507;M;P.;;;VAN DER SLUIS;;0;0;187;1997;70102;Holdings (geen financiële);Netherlands;midden;midden;0;;;;;0;0;0;0;0;0;0;1;1;0;0
149;01005622;000005772516;Boomkwekerij De Haan;Oudeweg;162;a;9201ER;DRACHTEN;871687120051377421;871687140001374171;0;0512512916;M;E.;;;DOUMA;;6;;120;2004;01305;Teelt van boomkwekerijgewassen in de volle grond;Netherlands;hoog;hoog;0;;;;;0;0;0;0;0;0;0;0;0;1;1
150;01005704;000015866955;Fa. L. Kleinhuis en Zn.;Sanbuorren;17;;9216VB;OUDEGA;871687120052350027;871687140014479061;0;0512371407;;J.;;;KLEINHUIS;;8;8;143;1928;4120;Algemene burgerlijke en utiliteitsbouw;Netherlands;midden;hoog;0;;;;;0;0;0;0;0;0;0;1;0;0;1
151;01005757;000014036290;Bakkerij Kruiper;Hoofdstraat Oost;38;;8471JM;WOLVEGA;871687120051994208;871689740010982794;0;0561612396;;E.;W.;;KRUIPER;www.bakkerijkruiper.nl;5;;62;1906;1071;Vervaardiging van brood en vers banketbakkerswerk;Netherlands;midden;midden;0;;;;;0;0;0;0;0;0;0;1;1;0;0
152;01005823;000017656672;G.P. Registergoed B.V.;Burg De Meesterstraat;11;;3846AB;HARDERWIJK;871687120000346744;871687140023369582;0;0341423723;;;;;;;0;1;416;1957;64301;Beleggingsinstellingen in financiële activa;Netherlands;midden;hoog;0;;;;;0;0;0;0;0;0;0;1;0;0;1
153;01005823;000017656672;G.P. Registergoed B.V.;Burg De Meesterstraat;11;;3846AB;HARDERWIJK;871687120000346744;871687140023369582;0;0341423723;;;;;;;0;1;416;1957;64301;Beleggingsinstellingen in financiële activa;Netherlands;midden;hoog;0;;;;;0;0;0;0;0;0;0;1;0;0;1
154;01005950;000016019709;Alg. Fries Ond. Sch.verz. Mij. Zevenwouden UA;De Eenhoorn;2;;8932NX;LEEUWARDEN;871689740000035363;871689740010031188;0;0513656700;M;W.;R.;D.;NAUTA;www.zevenwouden.nl;13;29;980;1992;65121;Schadeverzekeringen, exclusief zorgverzekeringen;Netherlands;hoog;hoog;0;;;;;0;0;0;0;0;0;0;0;0;1;1
155;01006058;000011761091;H. de Boer B.V.;Stationsweg;8;;8401DP;GORREDIJK;871687120051667362;871689740010800838;1;0513465757;;H.;B.;;DE BOER;;1;;70;1924;68204;Verhuur van onroerend goed (niet van woonruimte);Netherlands;midden;midden;0;;;;;0;0;0;0;0;0;0;1;1;0;0
156;01006095;000004986830;Service Station Kaatsland;Lemmerweg;23;;8608AA;SNEEK;;871689740011313252;0;0515414820;;A.;;;HEMPENIUS;;1;;244;1908;45312;Groothandel en handelsbemiddeling in banden;Netherlands;midden;midden;0;;;;;0;0;0;0;0;0;0;1;1;0;0
157;01006104;000019294387;Hotel-Café-Restaurant De Groene Weide;Snekerstraat;2;;8701XD;BOLSWARD;871687120052048634;871689740011615011;0;0515572284;;;;;;;5;5;644;1920;55101;Hotel-restaurants;Netherlands;hoog;hoog;0;;;;;0;0;0;0;0;0;0;0;0;1;1
158;01006151;000010014470;De Faam;Voorstreek;25;;8911JJ;LEEUWARDEN;871689740000410870;871689740010381573;0;0582124372;M;B.;A.;;DE BOER;;5;;91;1875;47716;Winkels in onderkleding, foundations e.d.;Netherlands;hoog;midden;0;;;;;0;0;0;0;0;0;0;0;1;1;0
159;01006151;000010014551;Il Famo;Zaailand;129;;8911BL;LEEUWARDEN;;;0;0582162707;M;B.;A.;;DE BOER;www.ilfamo.nl;3;;;;47716;Winkels in onderkleding, foundations e.d.;Netherlands;;;0;;;;;0;0;0;0;0;0;0;0;0;0;0
160;01006201;000000748676;Expert-Bijlhout V.o.f.;Schulpen;9;;8531HR;LEMMER;871687120052398784;871689740011683812;0;0514561296;F;B.;A.;M.;DE WAAIJ-BIJLHOLT;;5;;769;1884;47432;Winkels in een algemeen assortiment van wit- en bruingoed;Netherlands;hoog;hoog;0;;;;;0;0;0;0;0;0;0;0;0;1;1
161;01006275;000013046004;Firma M. de Groot;Kooijweg;30;;8715EP;STAVOREN;871687110000196814;871689740030056215;0;0514681210;M;A.;;;DE GROOT;www.mdegroot.com;7;;1551;2004;46711;Groothandel in vaste brandstoffen;Netherlands;hoog;hoog;0;;;;;0;0;0;0;0;0;0;0;0;1;1
162;01006277;000008367620;Onderling Veefonds Oost-Terschelling;Baaiduinen;53;A;8884HH;BAAIDUINEN;871687120052178874;871689740010767513;0;0562449353;;H.;;;HEK;;0;;198;1967;65121;Schadeverzekeringen, exclusief zorgverzekeringen;Netherlands;midden;midden;0;;;;;0;0;0;0;0;0;0;1;1;0;0
163;01006297;000015499316;B.V. Sneeker Jachthaven;Burgemeester de Hooppark;2;;8605CR;SNEEK;;871689740011273211;1;0515417061;M;G.;;;DE MAIJER;;1;;1440;1980;93291;Jachthavens;Netherlands;midden;hoog;0;;;;;0;0;0;0;0;0;0;1;0;0;1
164;01006299;000001396633;Kapsalon Hendrika;St. Jacobstraat;11;;8861AX;HARLINGEN;871687120050735789;871689740010672763;1;0517430353;F;H.;;;PONTE-DIJKSTRA;;1;;207;1900;96021;Haarverzorging;Netherlands;midden;midden;0;;;;;0;0;0;0;0;0;0;1;1;0;0
165;01006331;000000863688;Bakkerij Overzet;Franekereind;16;-18;8861ED;HARLINGEN;871687120050945959;;0;0517430600;M;D.;A.;;SCHAAP;;17;;405;1900;1071;Vervaardiging van brood en vers banketbakkerswerk;Netherlands;hoog;hoog;0;;;;;0;0;0;0;0;0;0;0;0;1;1
166;01006364;000009936149;J. de Boer;Plein;2;;8754ER;MAKKUM;871687120051076836;871689740011412184;0;0515231506;;J.;;;DE BOER;;2;;213;1800;47721;Winkels in schoenen;Netherlands;midden;midden;0;;;;;0;0;0;0;0;0;0;1;1;0;0
167;01006463;000016639847;LWM International B.V.;Stationsweg;18;A;4416PJ;KRUININGEN;871690200181029408;871712775001644372;0;0113394955;;;;;;;116;998;4512;1995;46312;Groothandel in consumptieaardappelen;Netherlands;midden;hoog;0;;;;;0;0;0;0;0;0;0;1;0;0;1
168;01006465;000006173586;Aardappelgroothandel Cnossen;Bellstraat;6;;8606JH;SNEEK;871687120000796303;871689740011312132;0;0654668945;M;H.;;;CNOSSEN;www.groothandelcnossen.nl;3;;969;1994;46312;Groothandel in consumptieaardappelen;Netherlands;hoog;hoog;0;;;;;0;0;0;0;0;0;0;0;0;1;1
169;01006469;000000950777;"Onderl. paardenverzmij. Oldeboorn e.o."" U.A.""";De Polle;3;;9011WX;JIRNSUM;871687120052008843;871689740010966343;1;0610688003;M;B.;;;DE BOER;;1;;68;1900;65121;Schadeverzekeringen, exclusief zorgverzekeringen;Netherlands;midden;midden;0;;;;;0;0;0;0;0;0;0;1;1;0;0
170;01006487;000000969044;Henny van Duuren Beheer B.V.;Pieter Sipmawei;41;;8915DZ;LEEUWARDEN;871689740000389961;871689740010362374;0;0622668479;F;C.;K.;;VAN DUUREN-BOUWMEESTER;www.hennyvanduuren.nl;1;42;154;2000;6420;Financiële holdings;Netherlands;midden;midden;0;;;;;0;0;0;0;0;0;0;1;1;0;0
171;01006504;000009856099;Slagerij Schram;Voorstraat;29;;8715HW;STAVOREN;;;0;0514681221;;W.;;;SCHRAM;www.schram.uw-slager.nl;3;;209;1894;47221;Winkels in vlees en vleeswaren;Netherlands;hoog;hoog;0;;;;;0;0;0;0;0;0;0;0;0;1;1
172;01006545;000000762903;Tichelaars Makkumer Aardewerk & Tegelfabriek;Kalkovens;1;;8754GP;MAKKUM;871687120000014087;871689740011415864;0;0515231341;M;M.;;;HARTMAN;www.tichelaar.nl;0;;4296;1970;2331;Vervaardiging van keramische tegels en plavuizen;Netherlands;midden;hoog;0;;;;;0;0;0;0;0;0;0;1;0;0;1
173;01006582;000016638549;B.V. Terschellinger Stoomboot Maatschappij;Waddenpromenade;5;;8861NT;HARLINGEN;871687120000795207;871689740010674859;0;;M;P.;J.;M.;MELLES;;39;226;3035;1992;5030;Binnenvaart (passagiersvaart en veerdiensten);Netherlands;midden;hoog;0;;;;;0;0;0;0;0;0;0;1;0;0;1
174;01006582;000016638565;B.V. Terschellinger Stoomboot Maatschappij;Willem Barentszkade;21;;8881BC;WEST-TERSCHELLING;;871689740010746167;0;;M;P.;J.;M.;MELLES;;130;226;108;1850;50401;Binnenvaart (vrachtvaart);Netherlands;hoog;hoog;0;;;;;0;0;0;0;0;0;0;0;0;1;1
175;01006604;000011604654;Lammert de Vries Beheer B.V.;Biensma;34;;9001ZZ;GROU;871687110000042401;871689740030033193;0;0566629955;M;J.;;;DE VRIES;;0;;2382;2003;6420;Financiële holdings;Netherlands;midden;hoog;0;;;;;0;0;0;0;0;0;0;1;0;0;1
176;01006711;000017252318;Autobedrijf Mulder Sneek B.V.;Nr;12;;8553MP;INDIJK;871687120052131213;871689740011203515;1;0514591309;;;;;;;1;1;202;1991;4730;Benzinestations;Netherlands;midden;midden;0;;;;;0;0;0;0;0;0;0;1;1;0;0
177;01006726;000009563253;Ypma's Bakkerij;De Skatting;49;;8621BV;HEEG;871687120051524399;871689740011495859;0;0515442277;;Y.;;;IJPMA;;19;;426;1919;1071;Vervaardiging van brood en vers banketbakkerswerk;Netherlands;hoog;hoog;0;;;;;0;0;0;0;0;0;0;0;0;1;1
178;01006781;000018642144;Modehuis Van der Zee, Herenkleding B.V.;Zuiderbuurt;22;;9203CW;DRACHTEN;871687120051698106;871687140010997057;0;0512516115;;;;;;;5;24;763;1900;47711;Winkels in herenkleding;Netherlands;hoog;hoog;0;;;;;0;0;0;0;0;0;0;0;0;1;1
179;01006797;000016527631;George Pars Graanhandel B.V.;K.L. de Vriesstraat;20;;9079KK;ST.-JACOBIPAROCHIE;871687120000268039;871689740010493894;0;0518491289;M;J.;G.;;PARS;;11;11;619;1980;46218;Groothandel in akkerbouwproducten en veevoeder algemeen assortiment;Netherlands;hoog;hoog;0;;;;;0;0;0;0;0;0;0;0;0;1;1
180;01006807;000016279611;Makelaardij Jan de Lange B.V.;Westersingel;35;;8601EN;SNEEK;871687120052363744;871689740011342566;0;0515412345;;;;;;;9;9;234;1930;6831;Bemiddeling bij handel, huur of verhuur van onroerend goed;Netherlands;hoog;hoog;0;;;;;0;0;0;0;0;0;0;0;0;1;1
181;01006809;000012547530;Bouwkundig Calc.buro Noord-Nederland B.V.;Willem Lodewijklaan;63;;8448PG;HEERENVEEN;871687120101585691;871687140020673408;0;;M;J.;M.;R.;BORINGA;;1;;189;2004;6630;Vermogensbeheer;Netherlands;midden;midden;0;;;;;0;0;0;0;0;0;0;1;1;0;0
182;01006828;000019911173;Koopmans Koninklijke Meelfabrieken B.V.;De Merodestraat;3;;8937AA;LEEUWARDEN;871689700000010326;871689700000005001;0;0582948494;M;D.;;;LODEWIJK;;0;107;13938;1928;1061;Vervaardiging van meel (geen zetmeel);Netherlands;midden;hoog;0;;;;;0;0;0;0;0;0;0;1;0;0;1
183;01006868;000019534582;Garage Rinsma Berlikum B.V.;Bitgumerdyk;26;;9041CE;BERLTSUM;871687120000271015;871689740010570533;0;0518461337;M;S.;H.;;BOERSMA;www.rinsma.nl;34;48;3045;1965;45192;Handel in en reparatie van zwaardere bedrijfsauto's (geen import van nieuwe);Netherlands;midden;hoog;0;;;;;0;0;0;0;0;0;0;1;0;0;1
184;01006899;000006122183;Huizenga's Bakkerij;Greatebuorren;8;;9036MG;MENAAM;871687120052558805;871689740010547160;0;0518451331;;J.;R.;;HUIZENGA;;3;;263;1900;1071;Vervaardiging van brood en vers banketbakkerswerk;Netherlands;hoog;hoog;0;;;;;0;0;0;0;0;0;0;0;0;1;1
185;01006913;000016323696;Rienks Vastgoed B.V.;Julianastraat;36;;8601GP;SNEEK;871687120051516509;871689740011426730;0;0517641203;M;W.;;;RIENKS;;0;2;85;1998;6832;Beheer van onroerend goed;Netherlands;midden;laag;0;;;;;0;0;0;0;0;0;1;1;0;0;0
186;01006943;000003756424;Slagerij Smit;Lieuwenburg;77;;8925CJ;LEEUWARDEN;871689740000212771;871689740010190267;0;0582671020;M;J.;A.;;SMIT;;4;;100;1987;47221;Winkels in vlees en vleeswaren;Netherlands;hoog;laag;0;;;;;0;0;0;0;0;0;1;0;0;1;0
187;01006943;000003756440;Slagerij Smit;Buorren;28;;9041BB;BERLTSUM;871687120051250007;871689740010566208;1;0518461403;M;J.;A.;;SMIT;;1;;168;1900;47221;Winkels in vlees en vleeswaren;Netherlands;midden;midden;0;;;;;0;0;0;0;0;0;0;1;1;0;0
188;01006943;000021411514;Slagerij Smit;Bilgaardpassage;81;C-6;8918HT;LEEUWARDEN;;;0;0582664759;M;J.;A.;;SMIT;www.slagerijsmit.com;2;;137;2010;47221;Winkels in vlees en vleeswaren;Netherlands;hoog;midden;0;;;;;0;0;0;0;0;0;0;0;1;1;0
189;01006962;000017691036;Hoogland B.V.;Hegebeintumerdyk;33;B;9172PH;FERWERT;871687120000269548;871689295900349534;0;0518411400;;;;;;www.hooglandbv.nl;15;15;882;1955;46218;Groothandel in akkerbouwproducten en veevoeder algemeen assortiment;Netherlands;hoog;hoog;0;;;;;0;0;0;0;0;0;0;0;0;1;1
190;01006962;000033136815;Hoogland B.V.;Neptunusweg;5;;8938AA;LEEUWARDEN;871689700000036036;871689740010001549;0;;;;;;;www.hooglandbv.nl;2;;100;1965;46218;Groothandel in akkerbouwproducten en veevoeder algemeen assortiment;Netherlands;hoog;hoog;0;;;;;0;0;0;0;0;0;0;0;0;1;1
191;01006962;000033136815;Hoogland B.V.;Neptunusweg;5;;8938AA;LEEUWARDEN;871689700000036036;871689740010001549;0;;;;;;;www.hooglandbv.nl;2;;100;1965;46218;Groothandel in akkerbouwproducten en veevoeder algemeen assortiment;Netherlands;hoog;hoog;0;;;;;0;0;0;0;0;0;0;0;0;1;1
192;01007038;000009824634;Holding M.S. de Vries en Zonen B.V.;Alddyk;16;;9044MN;BITGUM;871687120050827248;871689740010523171;0;0582531545;M;P.;;;DE VRIES;;0;52;1283;1985;6420;Financiële holdings;Netherlands;midden;hoog;0;;;;;0;0;0;0;0;0;0;1;0;0;1
193;01007169;000012675172;Elektrotechnisch Installatiebedrijf Pewe;Kastanjelaan;33;;8441NC;HEERENVEEN;871687120052975725;871687140021032389;0;0513541270;M;P.;;;WESSELIUS;;2;;172;1997;4321;Elektrotechnische bouwinstallatie;Netherlands;midden;midden;0;;;;;0;0;0;0;0;0;0;1;1;0;0
194;01007197;;Multicycle Inventures Group B.V.;Koopmanslaan;4;;7005BK;DOETINCHEM;871687120000344108;871687140007529865;0;;;;;;;;0;;1131;1997;;;Netherlands;midden;hoog;0;;;;;0;0;0;0;0;0;0;1;0;0;1
195;01007251;000009682392;Sigarenspeciaalzaak Terpstra;Aalsumerpoort;12;;9101JL;DOKKUM;871687120050937671;871689295900155944;0;0519292701;M;W.;O.;;TERPSTRA;;2;;169;1900;4726;Winkels in tabaksproducten;Netherlands;midden;midden;0;;;;;0;0;0;0;0;0;0;1;1;0;0
196;01007259;000013775545;Dierenspeciaalzaak Gaasterland;Meerweg;14;;8561AV;BALK;;871689740011559407;0;0514602841;;H.;E.;;MULDER;;3;;409;1928;47763;Winkels in dieren, dierbenodigdheden en hengelsportartikelen;Netherlands;hoog;hoog;0;;;;;0;0;0;0;0;0;0;0;0;1;1
197;01007313;000002985799;Bart Vossenberg;Wagnerstraat;1;;8915CH;LEEUWARDEN;871689740000388032;871689740010360639;1;0582124318;M;B.;J.;;VOSSENBERG;;1;;137;1957;47522;Winkels in verf, verfwaren en behang;Netherlands;hoog;midden;0;;;;;0;0;0;0;0;0;0;0;1;1;0
198;01007395;000001794434;Landb. Aank Ver. Eendracht Maakt Macht B.A.;Fabrieksweg;4;;9161CG;HOLLUM;871687120051973937;871689295900591612;0;0519554010;M;R.;M.;;BEIJAARD;;5;;797;1983;46218;Groothandel in akkerbouwproducten en veevoeder algemeen assortiment;Netherlands;hoog;hoog;0;;;;;0;0;0;0;0;0;0;0;0;1;1
199;01007410;000017204631;Hoekstra Drukkerij en Uitgeverij;Van Harenstraat;27;;9076BS;ST.-ANNAPAROCHIE;871687120051680125;871689740010502466;0;0518401228;M;A.;;;HOEKSTRA;www.hdu.nl;10;10;596;1890;18129;Overige drukkerijen (rest);Netherlands;hoog;hoog;0;;;;;0;0;0;0;0;0;0;0;0;1;1
200;01007506;000006172903;Bouwbedrijf R. Tamminga;Wattstraat;8;;9285WR;BUITENPOST;871687120050886054;871689295900458816;0;0511542740;M;R.;;;TAMMINGA;;10;;796;1991;4120;Algemene burgerlijke en utiliteitsbouw;Netherlands;hoog;hoog;0;;;;;0;0;0;0;0;0;0;0;0;1;1
201;01007566;000002805030;De Vrouwe van Stavoren B.V.;Havenweg;2;;8715EM;STAVOREN;871687120052255704;871689740011598123;0;0514681255;M;B.;R.;;KOLK;;0;;246;1900;70102;Holdings (geen financiële);Netherlands;midden;hoog;0;;;;;0;0;0;0;0;0;0;1;0;0;1
202;01007648;000015900479;Automobielbedrijf Engelsma en Wijnia B.V.;Leo Twijnstrastraat;2;;8923EL;LEEUWARDEN;871689700000026426;871689740010278347;0;;;;;;;;45;71;595;1978;45112;Handel in en reparatie van personenauto's en lichte bedrijfsautos (geen import van nieuwe);Netherlands;hoog;hoog;0;;;;;0;0;0;0;0;0;0;0;0;1;1
203;01007648;000022981349;Engelsma en Wijnia Autolet;Jupiterweg;1;;8938AD;LEEUWARDEN;871689740030266829;871689740010001877;0;0582880863;M;R.;K.;;SEPP;www.engelsmawijnia.nl;2;71;1112;1985;45112;Handel in en reparatie van personenauto's en lichte bedrijfsautos (geen import van nieuwe);Netherlands;hoog;hoog;0;;;;;0;0;0;0;0;0;0;0;0;1;1
204;01007659;000001183095;"Ziekenfonds 't Gild""""";Lyts Blijema;16;;9001LJ;GROU;871687120051546629;871689740010935950;0;0566622511;M;P.;T.;;DIJKSTRA;;0;;135;1977;65121;Schadeverzekeringen, exclusief zorgverzekeringen;Netherlands;midden;midden;0;;;;;0;0;0;0;0;0;0;1;1;0;0
205;01007687;000015085163;V.O.F. Sytema Gorredijk;Hoofdstraat;38;;8401CA;GORREDIJK;871687120051668116;871689740010800159;0;0513461297;M;J.;S.;;SIJTEMA;;6;;299;1930;4777;Winkels in juweliersartikelen en uurwerken;Netherlands;hoog;hoog;0;;;;;0;0;0;0;0;0;0;0;0;1;1
206;01007779;000011719834;Breimer's Bakkerij;Midstraat;80;;8501AS;JOURE;871687120051289274;871689740011746586;0;0513412359;M;J.;;;BREIMER;;10;;590;1930;1071;Vervaardiging van brood en vers banketbakkerswerk;Netherlands;hoog;hoog;0;;;;;0;0;0;0;0;0;0;0;0;1;1
207;01007779;000011719850;Breimer's Bakkerij;IJme Willem van Dijkstr;1;;8531RA;LEMMER;871687120000089658;871689740011681269;0;0514564684;;J.;;;BREIMER;;32;;826;1975;1071;Vervaardiging van brood en vers banketbakkerswerk;Netherlands;midden;hoog;0;;;;;0;0;0;0;0;0;0;1;0;0;1
208;01007838;000015885224;Van der Zee Bakkerijen B.V.;Greate Buorren;67;;9263PL;GARYP;871687120052211298;871689295900407289;0;0511405444;;;;;;;80;;161;2006;6420;Financiële holdings;Netherlands;midden;hoog;0;;;;;0;0;0;0;0;0;0;1;0;0;1
209;01007920;000002216221;Vogt Dokkum Beheer B.V.;Stationsweg;12;A;9101HZ;DOKKUM;871687120050723526;871689295900203799;0;0519295956;;B.;J.;;VOGT;;1;;215;1962;6420;Financiële holdings;Netherlands;midden;hoog;0;;;;;0;0;0;0;0;0;0;1;0;0;1
210;01007985;000012114022;Auto-Zuid Beheer B.V.;Kazerneplein;7;;8333DA;STEENWIJK;871691204000011185;871691204000011062;0;0521516137;M;W.;;;PIEST;;0;;97;2014;6420;Financiële holdings;Netherlands;laag;laag;0;;;;;0;0;0;0;0;1;1;0;0;0;0
211;01008037;000014157713;Paardenverzekeringmij Noord-Oost Friesland WA;Aesgemawei;1;;9154BB;FOUDGUM;871687120051482200;871689295900016887;0;0519293633;M;W.;;;WESTRA;;1;;155;1900;65121;Schadeverzekeringen, exclusief zorgverzekeringen;Netherlands;midden;midden;0;;;;;0;0;0;0;0;0;0;1;1;0;0
212;01008048;000010001905;Bakkerij A. Riemersma;Eyso de Wendtstraat;29;;9291ET;KOLLUM;871687120052524176;871689295900108315;0;0511451229;;A.;T.;;RIEMERSMA;;7;;375;1910;1071;Vervaardiging van brood en vers banketbakkerswerk;Netherlands;hoog;hoog;0;;;;;0;0;0;0;0;0;0;0;0;1;1
213;01008051;000015123065;Aannemersbedrijf J. Hiemstra;IJlsterkade;41;;8608AB;SNEEK;871687120051365794;871689740011319124;0;0515412479;M;J.;G.;;HIEMSTRA;;5;;322;1960;4120;Algemene burgerlijke en utiliteitsbouw;Netherlands;midden;hoog;0;;;;;0;0;0;0;0;0;0;1;0;0;1
214;01008078;000002596253;J. en H. Brouwer V.O.F.;Het Meer;245;;8448GH;HEERENVEEN;871687120052208762;871687140017000965;0;0513688236;M;J.;G.;;BROUWER;www.jhbrouwervof.nl;3;;906;1924;47641;Winkels in fietsen en bromfietsen;Netherlands;hoog;midden;0;;;;;0;0;0;0;0;0;0;0;1;1;0
215;01008099;000001640178;Veenstra Eestrum Beheer B.V.;Joost Wiersmaweg;5;;9258CC;JISTRUM;871687120051443850;871689295900144580;0;0512471225;M;D.;;;VEENSTRA;;0;0;603;1920;6420;Financiële holdings;Netherlands;midden;hoog;0;;;;;0;0;0;0;0;0;0;1;0;0;1
216;01008176;000016888294;Smederij Van der Veer Wolvega B.V.;Tinweg;6;;8471XK;WOLVEGA;871687120101367563;;0;0561612317;;;;;;;12;14;1642;2005;4661;Groothandel in landbouwmachines, werktuigen en tractoren;Netherlands;hoog;hoog;0;;;;;0;0;0;0;0;0;0;0;0;1;1
217;01008181;000013998382;Handelsonderneming Greidhoeke;De Iisbaan;15;A;8731DW;WOMMELS;871687120053045137;871689740011431260;0;0515331559;M;C.;;;FRANKENA;;1;;337;1999;46739;Groothandel in bouwmaterialen algemeen assortiment;Netherlands;hoog;midden;0;;;;;0;0;0;0;0;0;0;0;1;1;0
218;01008181;000013998390;Bouwbedrijf Vlieland;Fortweg;2;;8899CC;VLIELAND;871687110000636136;871689740030125423;0;;M;C.;;;FRANKENA;www.frankenabouw.nl;0;;78;2007;4332;Bouwtimmeren;Netherlands;midden;laag;0;;;;;0;0;0;0;0;0;1;1;0;0;0
219;01008181;000013998390;Bouwbedrijf Vlieland;Fortweg;2;;8899CC;VLIELAND;871687110000636136;871689740030125423;0;;M;C.;;;FRANKENA;www.frankenabouw.nl;0;;78;2007;4332;Bouwtimmeren;Netherlands;midden;laag;0;;;;;0;0;0;0;0;0;1;1;0;0;0
220;01008181;000013998412;Bouwbedrijf Frankena;De Lange Baan;9;;8731DZ;WOMMELS;871687110000812936;;0;0515331559;M;C.;;;FRANKENA;www.frankenabouw.nl;6;;158;1999;4120;Algemene burgerlijke en utiliteitsbouw;Netherlands;midden;midden;0;;;;;0;0;0;0;0;0;0;1;1;0;0
221;01008256;000000635642;Konstruktiewerken Berlikum Beheer B.V.;Bitgumerdyk;30;;9041CE;BERLTSUM;871687110000674961;871689740010570588;0;0518461846;M;J.;;;BOSJE;gocargo.nl;0;16;4180;1996;6612;Commissionairs en makelaars in effecten, beleggingsadviseurs e.d.;Netherlands;midden;hoog;0;;;;;0;0;0;0;0;0;0;1;0;0;1
222;01008262;000014934248;Slagerij R. Rijpma en Zn.;Canterlandseweg;12;;9061CC;GYTSJERK;871687120051720524;871689295900246116;0;0653853168;M;P.;;;RIJPMA;;19;;285;2002;47221;Winkels in vlees en vleeswaren;Netherlands;hoog;midden;0;;;;;0;0;0;0;0;0;0;0;1;1;0
223;01008270;000018668240;Carrosseriefabriek Heiwo B.V.;Industrieweg;2;;8471AD;WOLVEGA;871687120000012281;871689740010987331;0;0561612844;;W.;;;FEENSTRA;www.heiwo.nl;72;84;15620;1979;29201;Carrosseriebouw;Netherlands;midden;hoog;0;;;;;0;0;0;0;0;0;0;1;0;0;1
224;01008304;000007703171;Th. Aukema Beheer B.V.;Hoofden;106;;8604DK;SNEEK;871687110001050009;871689740030182075;0;0515460612;M;T.;;;AUKEMA;;0;;232;2008;6420;Financiële holdings;Netherlands;midden;midden;0;;;;;0;0;0;0;0;0;0;1;1;0;0
225;01008357;000013962272;Gosliga Holding B.V.;Rinia van Nautaweg;12;;9061AE;GYTSJERK;871687120051718507;871689295900250953;0;0582561111;F;S.;;;DE JONG-GOSLIGA;;2;36;97;1934;6420;Financiële holdings;Netherlands;midden;hoog;0;;;;;0;0;0;0;0;0;0;1;0;0;1
226;01008357;000013962272;Gosliga Holding B.V.;Rinia van Nautaweg;12;;9061AE;GYTSJERK;871687120051718507;871689295900250953;0;0582561111;F;S.;;;DE JONG-GOSLIGA;;2;36;97;1934;6420;Financiële holdings;Netherlands;midden;hoog;0;;;;;0;0;0;0;0;0;0;1;0;0;1
227;01008362;000010392572;Schildersbedrijf Ettema;Hichtumerweg;31;;8701PG;BOLSWARD;871687120053033202;871689740011626758;0;0653172375;;A.;;;BLOEMSMA;;6;;259;1998;4334;Schilderen en glaszetten;Netherlands;midden;midden;0;;;;;0;0;0;0;0;0;0;1;1;0;0
228;01008370;000011238011;Onderl. Verz. Paardenhouders Zuidwesthoek Fr.;Alde Skatting;2;;8621JC;HEEG;871687120101658142;871689740011496245;0;0515430120;M;M.;;;PIETERSMA;;2;;1732;1966;65121;Schadeverzekeringen, exclusief zorgverzekeringen;Netherlands;midden;hoog;0;;;;;0;0;0;0;0;0;0;1;0;0;1
229;01008377;000012044679;Bakkerij Keuning;Merk;15;;8711CL;WORKUM;871687120051873022;871689740011658735;0;0515541208;M;J.;;;KEUNING;;3;;222;1900;1071;Vervaardiging van brood en vers banketbakkerswerk;Netherlands;hoog;hoog;0;;;;;0;0;0;0;0;0;0;0;0;1;1
230;01008493;000012122793;Robijns V.O.F.;Merk;20;;8711CM;WORKUM;;871689740011658858;0;0515541410;;J.;F.;;ROBIJNS;www.robijnswonen.nl;6;;1055;1897;47593;Winkels in artikelen voor woninginrichting algemeen assortiment;Netherlands;hoog;hoog;0;;;;;0;0;0;0;0;0;0;0;0;1;1
231;01008495;000010324399;Blom's Slagerij;Noard;115;;8711AD;WORKUM;871687120051686981;871689740011650180;0;0515541354;;S.;;;BLOM;;5;;144;1854;47221;Winkels in vlees en vleeswaren;Netherlands;hoog;hoog;0;;;;;0;0;0;0;0;0;0;0;0;1;1
232;01008577;000015866165;Scheenstra Beheer B.V.;Idzardaweg;11;;8476EL;TER IDZARD;871687120051296869;871689740011036076;0;0561612266;M;A.;F.;;SCHEENSTRA;;2;2;193;1973;6420;Financiële holdings;Netherlands;midden;midden;0;;;;;0;0;0;0;0;0;0;1;1;0;0
233;01008595;000017817757;De Wissel Vastgoed B.V.;De Wissel;1;;9076PT;ST.-ANNAPAROCHIE;871687120051684796;871689740010501803;0;0518401307;;;;;;;0;1;1409;1983;6832;Beheer van onroerend goed;Netherlands;midden;hoog;0;;;;;0;0;0;0;0;0;0;1;0;0;1
234;01008782;000018974511;J.M. Raadsma Holding B.V.;Pier Prinslaan;15;;9101PX;DOKKUM;871687110000410118;871689213000005334;0;0519292325;;;;;;;0;38;1700;2005;6420;Financiële holdings;Netherlands;midden;hoog;0;;;;;0;0;0;0;0;0;0;1;0;0;1
235;01008786;000008118051;V.O.F. Smit;Langestraat;10;;9045PB;BITGUMMOLE;871687120050830576;871689740010523300;0;0582531348;;A.;J.;;SMIT;;2;;131;1932;4632;Groothandel in vlees en vleeswaren en in wild en gevogelte (niet levend);Netherlands;midden;midden;0;;;;;0;0;0;0;0;0;0;1;1;0;0
236;01008789;000009449035;Bangma's Bouwbedrijf B.V.;Westerein;27;;9263PC;GARYP;871687120052212929;871689295900411705;0;0511401921;M;K.;P.;;BANGMA;;0;;166;1988;4120;Algemene burgerlijke en utiliteitsbouw;Netherlands;midden;midden;0;;;;;0;0;0;0;0;0;0;1;1;0;0
237;01008800;000004425987;Bakkerij Sijbesma;Hylaerderpaed;1;;9031XW;BOKSUM;871687120101641526;;0;0582541323;M;R.;D.;;SIJBESMA;;14;;339;1900;1071;Vervaardiging van brood en vers banketbakkerswerk;Netherlands;hoog;midden;0;;;;;0;0;0;0;0;0;0;0;1;1;0
238;01008800;000004425995;Bakkerij Sijbesma;Spoorstrjitte;9;;9033WJ;DEINUM;871687120051385747;871689740010534016;0;0582541919;M;R.;D.;;SIJBESMA;;5;;41;1969;1071;Vervaardiging van brood en vers banketbakkerswerk;Netherlands;hoog;midden;0;;;;;0;0;0;0;0;0;0;0;1;1;0
239;01008850;000003623025;T.C. Stellema Beheer B.V.;Rondweg-West;160;;9101BG;DOKKUM;871687120000237653;871689295900201115;0;0519292303;;T.;C.;;STELLEMA;;0;15;1243;1990;6420;Financiële holdings;Netherlands;hoog;hoog;0;;;;;0;0;0;0;0;0;0;0;0;1;1
240;01008893;000015609286;Firma Reinders;Slotemaker de Bruineweg;5;;8433MB;HAULERWIJK;871687120052055014;871689740011158556;0;0516421283;;H.;;;REINDERS;;7;;549;1965;4711;Supermarkten en dergelijke winkels met een algemeen assortiment voedings- en genotmiddelen;Netherlands;hoog;hoog;0;;;;;0;0;0;0;0;0;0;0;0;1;1
241;01008893;000015609286;Firma Reinders;Slotemaker de Bruineweg;5;;8433MB;HAULERWIJK;871687120052055014;871689740011158556;0;0516421283;;H.;;;REINDERS;;7;;549;1965;4711;Supermarkten en dergelijke winkels met een algemeen assortiment voedings- en genotmiddelen;Netherlands;hoog;hoog;0;;;;;0;0;0;0;0;0;0;0;0;1;1
242;01008896;000013844172;L.J.Dijkstra Handel en Dienstverlening;Mulderstraat;28;;8395RA;STEGGERDA;871687120051491936;871689740011079332;0;;;;;;;;0;;96;1973;4120;Algemene burgerlijke en utiliteitsbouw;Netherlands;laag;laag;0;;;;;0;0;0;0;0;1;1;0;0;0;0
243;01008904;000010295399;Onderhoudsbedrijf Bolsward B.V.;Snekerstraat;11;;8701XA;BOLSWARD;;871689740030050350;0;0515577997;M;W.;P.;;VAN DER HAUW;;3;;270;1973;4120;Algemene burgerlijke en utiliteitsbouw;Netherlands;midden;midden;0;;;;;0;0;0;0;0;0;0;1;1;0;0
244;01008930;000017375525;Apotheek Ongena;Noordkade;16;;9203CC;DRACHTEN;871687120051893884;871687140005895245;0;0512512363;;;;;;;19;20;432;1950;4773;Apotheken;Netherlands;hoog;hoog;0;;;;;0;0;0;0;0;0;0;0;0;1;1
245;01009007;000015949605;De Korenbloem B.V.;Galigastraat;16;;8601CP;SNEEK;;;0;0515412875;;;;;;;14;14;409;1929;1071;Vervaardiging van brood en vers banketbakkerswerk;Netherlands;hoog;hoog;0;;;;;0;0;0;0;0;0;0;0;0;1;1
246;01009029;000005812976;Boersma Modeschoenen;Raadhuisstraat;5;;9001AG;GROU;871687120050923025;871689740010928570;0;0566621380;;A.;;;BOERSMA;;2;;265;1952;47721;Winkels in schoenen;Netherlands;midden;hoog;0;;;;;0;0;0;0;0;0;0;1;0;0;1
247;01009044;000008179883;Agrarisch bedrijf Bekius;Ferniawei;12;;9047KP;MINNERTSGA;871687120051838595;871689740010432350;0;0518471312;M;J.;;;BEKIUS;www.maaidorsers.nl;3;;1238;1891;0161;Dienstverlening voor de akker- en/of tuinbouw;Netherlands;hoog;hoog;0;;;;;0;0;0;0;0;0;0;0;0;1;1
248;01009056;000000499242;Café Broersma;Kavelwei;5;;9108MC;BROEKSTERWÂLD;871687120051216027;871689295900514505;0;0511421230;M;E.;;;BROERSMA;;5;;472;1936;5630;Cafés;Netherlands;hoog;hoog;0;;;;;0;0;0;0;0;0;0;0;0;1;1
249;01009117;000017861217;Overdiep Kleding B.V.;Dracht;85;;8442BM;HEERENVEEN;871687120051753027;871687140006415107;0;0513622604;;;;;;;6;;279;1910;47711;Winkels in herenkleding;Netherlands;hoog;hoog;0;;;;;0;0;0;0;0;0;0;0;0;1;1
