"kvk8"|"vestigingsnummer"|"kvknummer_vestigingsnummer"|"handelsnaam"|"zaaknaam"|"vennootschapsnaam"|"straat"|"huisnummer"|"toevoeginghuisnummer"|"postcode"|"woonplaatsnaam"|"edsn_ean_elektra"|"edsn_ean_gas"|"edsn_kleinverbruik_elektra"|"edsn_kleinverbruik_gas"|"edsn_grootverbruik_elektra"|"edsn_grootverbruiker_elektra"|"zzp"|"dnb_telefoonnummer"|"bevoegd_functionaris_geslacht"|"bevoegd_functionaris_initiaal1"|"bevoegd_functionaris_initiaal2"|"bevoegd_functionaris_initiaal3"|"bevoegd_functionaris_achternaam"|"domeinnaam"|"aantal_medewerkers"|"aantal_medewerkers_concern"|"bag_oppervlakte"|"bag_bouwjaar1"|"sbi_code_primair"|"sbi_omschrijving_primair"|"land"
"17211728"|"000014543761"|"17211728000014543761"|"Van Balveren Meesterschilder"|"Van Balveren Meesterschilder"|""|"Mozartlaan"|"11"|""|"5343EK"|"OSS"|"871687940004948214"|"871687940022888424"|"True"|"True"|"False"|"False"|"Ja"|"0647163831      "|"M"|"R.                                                              "|"R.                                                              "|"                                                                "|"VAN BALVEREN                                                    "|"www.vanbalverenmeesterschilder.nl"|"1"|""|"243"|"1974"|"4334      "|"Schilderen en glaszetten"|"Netherlands"
"17210995"|"000003699064"|"17210995000003699064"|"Brewing Control Solutions"|"Brewing Control Solutions"|""|"Magnoliahof"|"30"|""|"5213HK"|"'S-HERTOGENBOSCH"|"871687940006950635"|"871687940023661347"|"True"|"True"|"False"|"False"|"Ja"|"0651799097      "|"M"|"C.                                                              "|"J.                                                              "|"                                                                "|"VAN DER SPLINTER                                                "|"www.mp-m.nl"|"1"|""|"129"|"1999"|"7112      "|"Ingenieurs en overig technisch ontwerp en advies"|"Netherlands"
"17210528"|"000007044178"|"17210528000007044178"|"Van Nistelrooij Stucwerken"|"Van Nistelrooij Stucwerken"|""|"Elzenstraat"|"2"|"A"|"5391LA"|"NULAND"|"871687940005317057"|"871687940023215908"|"True"|"True"|"False"|"False"|"Nee"|"0615001837      "|"M"|"B.                                                              "|"R.                                                              "|"M.                                                              "|"VAN NISTELROOIJ                                                 "|""|"1"|""|"338"|"1970"|"4331      "|"Stukadoren"|"Netherlands"
"17208936"|"000015657566"|"17208936000015657566"|"Palingrokerij Royaal V.O.F."|"Palingrokerij Royaal V.O.F."|"Palingrokerij Royaal V.O.F."|"Watersteeg"|"20"|""|"5476KW"|"VORSTENBOSCH"|"871687940005385155"|"871715494001353073"|"True"|"True"|"False"|"False"|"Onbekend"|"0621998643      "|"M"|"H.                                                              "|"                                                                "|"                                                                "|"KUIPERS                                                         "|""|"2"|""|"211"|"1996"|"1020      "|"Visverwerking"|"Netherlands"
"17211760"|"000007231121"|"17211760000007231121"|"H. Aarts dienstverlening"|"H. Aarts dienstverlening"|""|"Smelen"|"104"|""|"5509RL"|"VELDHOVEN"|""|""|""|""|""|""|"Nee"|"0651494747      "|"M"|"H.                                                              "|"H.                                                              "|"G.                                                              "|"AARTS                                                           "|""|"1"|""|"129"|"2016"|"4311      "|"Slopen van bouwwerken"|"Netherlands"
